<?xml version="1.0" encoding="UTF-8"?>
<svg width="16px" height="13px" viewBox="0 0 16 13" version="1.1" xmlns="http://www.w3.org/2000/svg" xmlns:xlink="http://www.w3.org/1999/xlink">
    <!-- Generator: Sketch 56.2 (81672) - https://sketch.com -->
    <title>arrow</title>
    <desc>Created with Sketch.</desc>
    <g id="Page-1" stroke="none" stroke-width="1" fill="none" fill-rule="evenodd">
        <g id="submission-individual-registration-1.0" transform="translate(-301.000000, -55.000000)" fill="#202330" fill-rule="nonzero">
            <g id="arrow" transform="translate(301.000000, 55.000000)">
                <path d="M15.4042316,5.75789884 L9.9858982,0.305286902 C9.58004936,-0.103112521 8.92360999,-0.101592359 8.51962736,0.30885142 C8.11569657,0.71924278 8.11725175,1.38302944 8.52310058,1.79148129 L12.1603439,5.45161237 L1.03678334,5.45161237 C0.464167901,5.45161237 0,5.92097554 0,6.5 C0,7.07902458 0.464167901,7.54838775 1.03678334,7.54838775 L12.1602921,7.54838775 L8.52315242,11.2085188 C8.11730359,11.6169707 8.11574841,12.2807573 8.5196792,12.6911487 C8.92366183,13.1016449 9.58015304,13.1030602 9.98595004,12.6947132 L15.4033503,7.24309725 C15.8103396,6.83228654 15.8090437,6.16635068 15.4042316,5.75789884 Z" id="Path" transform="translate(7.854108, 6.500000) scale(-1, 1) translate(-7.854108, -6.500000) "></path>
            </g>
        </g>
    </g>
</svg>